Chapter 2 Hello bookdown | A Minimal Book Example
…
All chapter sections start with a second-level (##) or higher heading followed by your section title, like the sections above and below here. You can have as many as you want within a chapter.

2.2 Normal Distribution

2.2.1 First, a bit of data wrangling

Let’s load the weight-height.csv and have a quick look at the data

library(tidyverse)
library(glue)
# Load csv data
weight <- read_csv("weight-height.csv")
weight

## # A tibble: 10,000 × 3
##    Gender Height Weight
##    <chr>   <dbl>  <dbl>
##  1 Male     73.8   242.
##  2 Male     68.8   162.
##  3 Male     74.1   213.
##  4 Male     71.7   220.
##  5 Male     69.9   206.
##  6 Male     67.3   152.
##  7 Male     68.8   184.
##  8 Male     68.3   168.
##  9 Male     67.0   176.
## 10 Male     63.5   156.
## # … with 9,990 more rows

We will analyse the male data, so just extract male data & add a new column with weight in kg units

# Filter data for male samples, convert lb to kg
weight_male <- weight %>% 
  filter(Gender == "Male") %>% 
  mutate(weight_kg = Weight/2.20)

weight_male

## # A tibble: 5,000 × 4
##    Gender Height Weight weight_kg
##    <chr>   <dbl>  <dbl>     <dbl>
##  1 Male     73.8   242.     110. 
##  2 Male     68.8   162.      73.8
##  3 Male     74.1   213.      96.7
##  4 Male     71.7   220.     100. 
##  5 Male     69.9   206.      93.8
##  6 Male     67.3   152.      69.2
##  7 Male     68.8   184.      83.6
##  8 Male     68.3   168.      76.4
##  9 Male     67.0   176.      80.0
## 10 Male     63.5   156.      71.1
## # … with 4,990 more rows
…
weight_male_with_sd

## # A tibble: 5,000 × 7
##    Gender Height Weight weight_kg one_sd  two_sd  three_sd
##    <chr>   <dbl>  <dbl>     <dbl> <chr>   <chr>   <chr>   
##  1 Male     73.8   242.     110.  outside outside three_sd
##  2 Male     68.8   162.      73.8 outside two_sd  three_sd
##  3 Male     74.1   213.      96.7 outside two_sd  three_sd
##  4 Male     71.7   220.     100.  outside two_sd  three_sd
##  5 Male     69.9   206.      93.8 one_sd  two_sd  three_sd
##  6 Male     67.3   152.      69.2 outside two_sd  three_sd
##  7 Male     68.8   184.      83.6 one_sd  two_sd  three_sd
##  8 Male     68.3   168.      76.4 one_sd  two_sd  three_sd
##  9 Male     67.0   176.      80.0 one_sd  two_sd  three_sd
## 10 Male     63.5   156.      71.1 outside two_sd  three_sd
## # … with 4,990 more rows
…
